module bitbucket.org/sy_ka/shipping-container/shippy/shippy-service-consignment

go 1.17

require (
	github.com/golang/protobuf v1.5.2
	github.com/micro/go-micro/v2 v2.9.1-0.20200723075038-fbdf1f2c1c4c
)

require (
	github.com/BurntSushi/toml v0.3.1 // indirect
	github.com/bitly/go-simplejson v0.5.0 // indirect
	github.com/coreos/etcd v3.3.18+incompatible // indirect
	github.com/coreos/go-systemd v0.0.0-20190719114852-fd7a80b32e1f // indirect
	github.com/coreos/pkg v0.0.0-20180928190104-399ea9e2e55f // indirect
	github.com/cpuguy83/go-md2man/v2 v2.0.0 // indirect
	github.com/davecgh/go-spew v1.1.1 // indirect
	github.com/dgrijalva/jwt-go v3.2.0+incompatible // indirect
	github.com/fsnotify/fsnotify v1.4.7 // indirect
	github.com/ghodss/yaml v1.0.0 // indirect
	github.com/gogo/protobuf v1.2.2-0.20190723190241-65acae22fc9d // indirect
	github.com/google/uuid v1.1.1 // indirect
	github.com/hashicorp/hcl v1.0.0 // indirect
	github.com/hpcloud/tail v1.0.0 // indirect
	github.com/imdario/mergo v0.3.9 // indirect
	github.com/kr/pretty v0.2.0 // indirect
	github.com/micro/cli/v2 v2.1.2 // indirect
	github.com/miekg/dns v1.1.27 // indirect
	github.com/mitchellh/hashstructure v1.0.0 // indirect
	github.com/nats-io/jwt v0.3.2 // indirect
	github.com/nats-io/nats.go v1.9.2 // indirect
	github.com/nats-io/nkeys v0.1.4 // indirect
	github.com/nats-io/nuid v1.0.1 // indirect
	github.com/oxtoacart/bpool v0.0.0-20190530202638-03653db5a59c // indirect
	github.com/patrickmn/go-cache v2.1.0+incompatible // indirect
	github.com/pkg/errors v0.9.1 // indirect
	github.com/pmezard/go-difflib v1.0.0 // indirect
	github.com/russross/blackfriday/v2 v2.0.1 // indirect
	github.com/shurcooL/sanitized_anchor_name v1.0.0 // indirect
	github.com/stretchr/testify v1.5.1 // indirect
	github.com/teris-io/shortid v0.0.0-20171029131806-771a37caa5cf // indirect
	go.uber.org/atomic v1.5.0 // indirect
	go.uber.org/multierr v1.3.0 // indirect
	go.uber.org/tools v0.0.0-20190618225709-2cfd321de3ee // indirect
	go.uber.org/zap v1.13.0 // indirect
	golang.org/x/crypto v0.0.0-20200709230013-948cd5f35899 // indirect
	golang.org/x/lint v0.0.0-20191125180803-fdd1cda4f05f // indirect
	golang.org/x/net v0.0.0-20220127200216-cd36cc0744dd // indirect
	golang.org/x/sys v0.0.0-20220209214540-3681064d5158 // indirect
	golang.org/x/text v0.3.7 // indirect
	golang.org/x/tools v0.0.0-20191216173652-a0e659d51361 // indirect
	google.golang.org/genproto v0.0.0-20220218161850-94dd64e39d7c // indirect
	google.golang.org/grpc v1.44.0 // indirect
	google.golang.org/protobuf v1.27.1 // indirect
	gopkg.in/fsnotify.v1 v1.4.7 // indirect
	gopkg.in/tomb.v1 v1.0.0-20141024135613-dd632973f1e7 // indirect
	gopkg.in/yaml.v2 v2.2.8 // indirect
	honnef.co/go/tools v0.0.1-2019.2.3 // indirect
)

replace bitbucket.org/sy_ka/shipping-container/shippy/shippy-service-consignment => ../shippy-service-consignment

replace google.golang.org/grpc => google.golang.org/grpc v1.26.0
